[
  {
    "text": "Main Navigation",
    "heading": "true",
    "translate": "sidebar.heading.HEADER"
  },
  
  {
    "text": "Coberturas Financieras",
    "sref": "#",
    "icon": "icon-speedometer",
    "label": "label label-info",
    "submenu": [
      { 
        "text": "Cargar nuevo lote", 
        "sref": "app.form",
        "params": { "kind": "workflow", "formId": "activiti$corfoWorkflow", "mode": "create-multiple" } 
      },
      { 
        "text": "Aprobar Lote", 
        "sref": "app.corfwf.tasks",
        "params": { "type": "corfwf:formPreAprobadoPorLote" } 
      },
      { 
        "text": "Pre Aprobar Corfo", 
        "sref": "app.corfwf.tasks",
        "params": { "type": "corfwf:formPreAprobacionCorfo" } 
      },
      { 
        "text": "Emitir Folios", 
        "sref": "app.corfwf.tasks",
        "params": { "type": "corfwf:formEmisionFolio" } 
      },
      { 
        "text": "Revisión Folios", 
        "sref": "app.corfwf.tasks",
        "params": { "type": "corfwf:formRevisionFolio" } 
      }
    ],
    "translate": "sidebar.nav.CORFWF"
  }
  
]
